%YAML 1.1
%TAG !u! tag:unity3d.com,2011:
--- !u!1045 &1
EditorBuildSettings:
  m_ObjectHideFlags: 0
  serializedVersion: 2
  m_Scenes:
  - enabled: 1
    path: Assets/Scenes/Escena1.unity
    guid: 71471fcdfe0c6b643bbfa2b859a5f607
  - enabled: 1
    path: Assets/Scenes/Dados.unity
    guid: 44301aecc43c09e4aa432fa7b5ae1f64
  - enabled: 1
    path: Assets/Scenes/Stack.unity
    guid: 74252d46090729445b6d4b3ed878b1e3
